week4/simulation/qsim/week4.msim.vcd
$comment
	File created using the following command:
		vcd file week4.msim.vcd -direction
$end
$date
	Tue Sep 26 20:19:21 2023
$end
$version
	ModelSim Version 2020.1
$end
$timescale
	1ps
$end

$scope module double_four_bit_register_vlg_vec_tst $end
$var reg 1 ! Ce $end
$var reg 1 " CLK $end
$var reg 1 # d1 $end
$var reg 1 $ d2 $end
$var reg 1 % d3 $end
$var reg 1 & d4 $end
$var reg 1 ' RST $end
$var wire 1 ( A1 $end
$var wire 1 ) A2 $end
$var wire 1 * A3 $end
$var wire 1 + A4 $end
$var wire 1 , B1 $end
$var wire 1 - B2 $end
$var wire 1 . B3 $end
$var wire 1 / B4 $end

$scope module i1 $end
$var wire 1 0 gnd $end
$var wire 1 1 vcc $end
$var wire 1 2 unknown $end
$var tri1 1 3 devclrn $end
$var tri1 1 4 devpor $end
$var tri1 1 5 devoe $end
$var wire 1 6 CLK~combout $end
$var wire 1 7 d1~combout $end
$var wire 1 8 RST~combout $end
$var wire 1 9 inst|inst|inst3~combout $end
$var wire 1 : Ce~combout $end
$var wire 1 ; inst|inst|inst2~regout $end
$var wire 1 < d2~combout $end
$var wire 1 = inst|inst4|inst2~regout $end
$var wire 1 > d3~combout $end
$var wire 1 ? inst|inst2|inst2~regout $end
$var wire 1 @ d4~combout $end
$var wire 1 A inst|inst3|inst2~regout $end
$var wire 1 B inst1|inst|inst2~regout $end
$var wire 1 C inst1|inst4|inst2~regout $end
$var wire 1 D inst1|inst2|inst2~regout $end
$var wire 1 E inst1|inst3|inst2~regout $end
$upscope $end
$upscope $end
$enddefinitions $end
#0
$dumpvars
0!
1"
0#
0$
0%
0&
1'
0(
0)
0*
0+
0,
0-
0.
0/
00
11
x2
13
14
15
16
07
18
09
0:
0;
0<
0=
0>
0?
0@
0A
0B
0C
0D
0E
$end
#20000
0"
06
#40000
1"
16
#60000
0"
06
#80000
1!
1#
1$
1"
1:
17
1<
16
1;
1=
1(
1)
#100000
0"
06
#120000
0!
0#
0$
0:
07
0<
#180000
1!
1:
#200000
1%
1&
1"
1>
1@
16
1?
1A
1C
1B
0=
0;
1*
1+
1-
1,
0)
0(
#220000
0!
0"
0:
06
#240000
0%
0&
0>
0@
#360000
1"
16
#380000
0"
06
#400000
1"
16
#420000
0"
06
#440000
1"
16
#460000
0"
06
#480000
1"
16
#500000
0"
06
#520000
1"
16
#540000
0"
06
#560000
1"
16
#580000
0"
06
#600000
1"
16
#620000
0"
06
#640000
1"
16
#660000
0"
06
#680000
1"
16
#700000
0"
06
#720000
1"
16
#740000
0"
06
#760000
1"
16
#780000
0"
06
#800000
1"
16
#820000
0"
06
#840000
1"
16
#860000
0"
06
#880000
1"
16
#900000
0"
06
#920000
1"
16
#940000
0"
06
#960000
1"
16
#980000
0"
06
