week3_1_2/simulation/qsim/week3_1_2.msim.vcd
$comment
	File created using the following command:
		vcd file week3_1_2.msim.vcd -direction
$end
$date
	Tue Sep 19 21:38:05 2023
$end
$version
	ModelSim Version 2020.1
$end
$timescale
	1ps
$end

$scope module zero_to_eleven_adder_vlg_vec_tst $end
$var reg 1 ! A0 $end
$var reg 1 " A1 $end
$var reg 1 # A2 $end
$var reg 1 $ A3 $end
$var reg 1 % A4 $end
$var reg 1 & A5 $end
$var reg 1 ' A6 $end
$var reg 1 ( A7 $end
$var reg 1 ) A8 $end
$var reg 1 * A9 $end
$var reg 1 + A10 $end
$var reg 1 , A11 $end
$var reg 1 - B0 $end
$var reg 1 . B1 $end
$var reg 1 / B2 $end
$var reg 1 0 B3 $end
$var reg 1 1 B4 $end
$var reg 1 2 B5 $end
$var reg 1 3 B6 $end
$var reg 1 4 B7 $end
$var reg 1 5 B8 $end
$var reg 1 6 B9 $end
$var reg 1 7 B10 $end
$var reg 1 8 B11 $end
$var reg 1 9 Cin $end
$var wire 1 : Carry $end
$var wire 1 ; Sum0 $end
$var wire 1 < Sum1 $end
$var wire 1 = Sum2 $end
$var wire 1 > Sum3 $end

$scope module i1 $end
$var wire 1 ? gnd $end
$var wire 1 @ vcc $end
$var wire 1 A unknown $end
$var tri1 1 B devclrn $end
$var tri1 1 C devpor $end
$var tri1 1 D devoe $end
$var wire 1 E A9~combout $end
$var wire 1 F A8~combout $end
$var wire 1 G A11~combout $end
$var wire 1 H A10~combout $end
$var wire 1 I inst|inst~0_combout $end
$var wire 1 J B5~combout $end
$var wire 1 K B6~combout $end
$var wire 1 L B7~combout $end
$var wire 1 M B4~combout $end
$var wire 1 N inst2|inst1~0_combout $end
$var wire 1 O B10~combout $end
$var wire 1 P B2~combout $end
$var wire 1 Q B11~combout $end
$var wire 1 R B3~combout $end
$var wire 1 S inst2|inst3~0_combout $end
$var wire 1 T inst2|inst2~combout $end
$var wire 1 U A7~combout $end
$var wire 1 V A3~combout $end
$var wire 1 W inst|inst3~0_combout $end
$var wire 1 X A2~combout $end
$var wire 1 Y A6~combout $end
$var wire 1 Z inst|inst2~combout $end
$var wire 1 [ A5~combout $end
$var wire 1 \ A1~combout $end
$var wire 1 ] inst|inst3~combout $end
$var wire 1 ^ B1~combout $end
$var wire 1 _ B9~combout $end
$var wire 1 ` inst2|inst3~combout $end
$var wire 1 a Cin~combout $end
$var wire 1 b inst1|inst|inst2~0_combout $end
$var wire 1 c inst1|inst2|inst2~0_combout $end
$var wire 1 d A4~combout $end
$var wire 1 e inst|inst1~0_combout $end
$var wire 1 f inst1|inst3|inst2~0_combout $end
$var wire 1 g B8~combout $end
$var wire 1 h inst2|inst~0_combout $end
$var wire 1 i inst1|inst4|inst2~0_combout $end
$var wire 1 j inst1|inst4|inst1|inst2~combout $end
$var wire 1 k inst1|inst3|inst1|inst2~combout $end
$var wire 1 l inst1|inst2|inst1|inst2~combout $end
$var wire 1 m inst1|inst|inst1|inst2~combout $end
$upscope $end
$upscope $end
$enddefinitions $end
#0
$dumpvars
0!
0"
0#
0$
0%
0&
0'
0(
0)
0*
0+
0,
0-
0.
0/
00
01
02
03
04
05
06
07
08
09
0:
0;
0<
0=
0>
0?
1@
xA
1B
1C
1D
0E
0F
0G
0H
0I
0J
0K
0L
0M
0N
0O
0P
0Q
0R
1S
0T
0U
0V
1W
0X
0Y
0Z
0[
0\
0]
0^
0_
0`
0a
0b
0c
0d
0e
0f
0g
0h
0i
0j
0k
0l
0m
$end
#10000
1%
11
1d
1M
1e
1N
1f
1j
1>
#70000
0%
01
0d
0M
0e
0N
0f
0j
0>
#100000
1,
1/
1G
1P
0W
1I
1T
1]
1Z
1j
1l
1m
0l
1c
1>
1<
1k
1;
0<
1=
#160000
0,
0/
0G
0P
1W
0I
0T
0]
0Z
0j
1l
0c
0m
0l
0k
0>
1<
0;
0<
0=
#210000
15
1g
1h
1j
1>
#220000
1)
1F
1I
0j
1i
0>
1:
#300000
05
0)
0g
0F
0h
0I
0i
0:
