week2_2/simulation/qsim/week2_2.msim.vcd
$comment
	File created using the following command:
		vcd file week2_2.msim.vcd -direction
$end
$date
	Tue Sep 12 20:35:23 2023
$end
$version
	ModelSim Version 2020.1
$end
$timescale
	1ps
$end

$scope module week2_2_vlg_vec_tst $end
$var reg 1 ! d0 $end
$var reg 1 " d1 $end
$var reg 1 # d2 $end
$var reg 1 $ d3 $end
$var reg 1 % d4 $end
$var reg 1 & d5 $end
$var reg 1 ' d6 $end
$var reg 1 ( d7 $end
$var reg 1 ) d8 $end
$var reg 1 * d9 $end
$var reg 1 + d10 $end
$var reg 1 , d11 $end
$var wire 1 - b0 $end
$var wire 1 . b1 $end
$var wire 1 / b2 $end
$var wire 1 0 b3 $end

$scope module i1 $end
$var wire 1 1 gnd $end
$var wire 1 2 vcc $end
$var wire 1 3 unknown $end
$var tri1 1 4 devclrn $end
$var tri1 1 5 devpor $end
$var tri1 1 6 devoe $end
$var wire 1 7 d5~combout $end
$var wire 1 8 d1~combout $end
$var wire 1 9 d9~combout $end
$var wire 1 : d3~combout $end
$var wire 1 ; d11~combout $end
$var wire 1 < d7~combout $end
$var wire 1 = inst15~0_combout $end
$var wire 1 > inst15~combout $end
$var wire 1 ? d10~combout $end
$var wire 1 @ d2~combout $end
$var wire 1 A d6~combout $end
$var wire 1 B inst14~combout $end
$var wire 1 C d4~combout $end
$var wire 1 D inst13~0_combout $end
$var wire 1 E d8~combout $end
$var wire 1 F inst~0_combout $end
$upscope $end
$upscope $end
$enddefinitions $end
#0
$dumpvars
1!
0"
0#
0$
0%
0&
0'
0(
0)
0*
0+
0,
0-
0.
0/
00
01
12
x3
14
15
16
07
08
09
0:
0;
0<
1=
0>
0?
0@
0A
0B
0C
0D
0E
0F
$end
#30000
0!
#40000
1"
18
1>
1-
#70000
0"
08
0>
0-
#80000
1#
1@
1B
1.
#110000
0#
0@
0B
0.
#120000
1$
1:
0=
1B
1>
1.
1-
#150000
0$
0:
1=
0B
0>
0.
0-
#160000
1%
1C
1D
1/
#190000
0%
0C
0D
0/
#200000
1&
17
1D
1>
1/
1-
#230000
0&
07
0D
0>
0/
0-
#240000
1'
1A
1D
1B
1/
1.
#270000
0'
0A
0D
0B
0/
0.
#280000
1(
1<
1D
0=
1B
1>
1/
1.
1-
#310000
0(
0<
0D
1=
0B
0>
0/
0.
0-
#320000
1)
1E
1F
10
#350000
0)
0E
0F
00
#360000
1*
19
1F
1>
10
1-
#390000
0*
09
0F
0>
00
0-
#400000
1+
1?
1F
1B
10
1.
#430000
0+
0?
0F
0B
00
0.
#440000
1,
1;
1F
0=
1B
1>
10
1.
1-
#470000
0,
0;
0F
1=
0B
0>
00
0.
0-
