week5/simulation/qsim/week5.msim.vcd
$comment
	File created using the following command:
		vcd file week5.msim.vcd -direction
$end
$date
	Mon Oct 02 13:31:22 2023
$end
$version
	ModelSim Version 2020.1
$end
$timescale
	1ps
$end

$scope module SRAM4x4_vlg_vec_tst $end
$var reg 2 ! Address [1:0] $end
$var reg 1 " clk $end
$var reg 4 # DataIn [3:0] $end
$var reg 1 $ rst_n $end
$var reg 1 % RW $end
$var wire 1 & DataOut [3] $end
$var wire 1 ' DataOut [2] $end
$var wire 1 ( DataOut [1] $end
$var wire 1 ) DataOut [0] $end

$scope module i1 $end
$var wire 1 * gnd $end
$var wire 1 + vcc $end
$var wire 1 , unknown $end
$var tri1 1 - devclrn $end
$var tri1 1 . devpor $end
$var tri1 1 / devoe $end
$var wire 1 0 ~QUARTUS_CREATED_GND~I_combout $end
$var wire 1 1 clk~input_o $end
$var wire 1 2 clk~inputCLKENA0_outclk $end
$var wire 1 3 Address[1]~input_o $end
$var wire 1 4 inst7|inst1|inst2~feeder_combout $end
$var wire 1 5 rst_n~input_o $end
$var wire 1 6 RW~input_o $end
$var wire 1 7 inst7|inst1|inst2~q $end
$var wire 1 8 DataIn[3]~input_o $end
$var wire 1 9 inst3|inst3|inst2~feeder_combout $end
$var wire 1 : Address[0]~input_o $end
$var wire 1 ; inst13~0_combout $end
$var wire 1 < inst3|inst3|inst2~q $end
$var wire 1 = inst4|inst3|inst2~feeder_combout $end
$var wire 1 > inst12~0_combout $end
$var wire 1 ? inst4|inst3|inst2~q $end
$var wire 1 @ inst2|inst3|inst2~feeder_combout $end
$var wire 1 A inst14~0_combout $end
$var wire 1 B inst2|inst3|inst2~q $end
$var wire 1 C inst11~0_combout $end
$var wire 1 D inst5|inst3|inst2~q $end
$var wire 1 E inst7|inst|inst2~feeder_combout $end
$var wire 1 F inst7|inst|inst2~q $end
$var wire 1 G inst8|auto_generated|l2_w3_n0_mux_dataout~0_combout $end
$var wire 1 H DataIn[2]~input_o $end
$var wire 1 I inst3|inst2|inst2~feeder_combout $end
$var wire 1 J inst3|inst2|inst2~q $end
$var wire 1 K inst4|inst2|inst2~feeder_combout $end
$var wire 1 L inst4|inst2|inst2~q $end
$var wire 1 M inst2|inst2|inst2~feeder_combout $end
$var wire 1 N inst2|inst2|inst2~q $end
$var wire 1 O inst5|inst2|inst2~q $end
$var wire 1 P inst8|auto_generated|l2_w2_n0_mux_dataout~0_combout $end
$var wire 1 Q DataIn[1]~input_o $end
$var wire 1 R inst2|inst1|inst2~feeder_combout $end
$var wire 1 S inst2|inst1|inst2~q $end
$var wire 1 T inst4|inst1|inst2~q $end
$var wire 1 U inst3|inst1|inst2~feeder_combout $end
$var wire 1 V inst3|inst1|inst2~q $end
$var wire 1 W inst5|inst1|inst2~q $end
$var wire 1 X inst8|auto_generated|l2_w1_n0_mux_dataout~0_combout $end
$var wire 1 Y DataIn[0]~input_o $end
$var wire 1 Z inst4|inst|inst2~feeder_combout $end
$var wire 1 [ inst4|inst|inst2~q $end
$var wire 1 \ inst3|inst|inst2~feeder_combout $end
$var wire 1 ] inst3|inst|inst2~q $end
$var wire 1 ^ inst5|inst|inst2~q $end
$var wire 1 _ inst2|inst|inst2~feeder_combout $end
$var wire 1 ` inst2|inst|inst2~q $end
$var wire 1 a inst8|auto_generated|l2_w0_n0_mux_dataout~0_combout $end
$upscope $end
$upscope $end
$enddefinitions $end
#0
$dumpvars
b0 !
0"
b0 #
1$
0%
0)
0(
0'
0&
0*
1+
x,
1-
1.
1/
00
01
02
03
04
15
06
07
08
09
0:
0;
0<
0=
0>
0?
0@
0A
0B
0C
0D
0E
0F
0G
0H
0I
0J
0K
0L
0M
0N
0O
0P
0Q
0R
0S
0T
0U
0V
0W
0X
0Y
0Z
0[
0\
0]
0^
0_
0`
0a
$end
#2500
1"
11
12
#5000
0"
01
02
#7500
1"
11
12
#10000
0"
01
02
#12500
1"
11
12
#15000
0"
01
02
#17500
1"
11
12
#20000
0"
01
02
#22500
1"
11
12
#25000
0"
01
02
#27500
1"
11
12
#30000
0"
01
02
#32500
1"
11
12
#35000
0"
01
02
#37500
1"
11
12
#40000
1%
b10 !
b11 !
b1000 #
b1001 #
0"
16
1Y
18
1:
13
01
02
1C
14
1E
1@
1=
19
1_
1\
1Z
#42500
1"
11
12
1^
1D
#45000
0"
01
02
#47500
1"
11
12
#50000
0"
01
02
#52500
1"
11
12
#55000
0"
01
02
#57500
1"
11
12
#60000
0%
b1 !
b0 !
b1 #
b0 #
0"
06
0Y
08
0:
03
01
02
0C
04
0E
0@
0=
09
0_
0\
0Z
#62500
1"
11
12
#65000
0"
01
02
#67500
1"
11
12
#70000
0"
01
02
#72500
1"
11
12
#75000
0"
01
02
#77500
1"
11
12
#80000
0"
01
02
#82500
1"
11
12
#85000
0"
01
02
#87500
1"
11
12
#90000
b10 !
b11 !
0"
1:
13
01
02
14
1E
#92500
1"
11
12
1F
17
1a
1G
1&
1)
#95000
0"
01
02
#97500
1"
11
12
#100000
0"
01
02
#102500
1"
11
12
#105000
0"
01
02
#107500
1"
11
12
#110000
b1 !
b0 !
0"
0:
03
01
02
04
0E
#112500
1"
11
12
0F
07
0a
0G
0&
0)
#115000
0"
01
02
#117500
1"
11
12
#120000
b100 #
b110 #
1%
b1 !
0"
16
1:
1Q
1H
01
02
1;
1M
1K
1I
1U
1R
1E
#122500
1"
11
12
1V
1J
#125000
0"
01
02
#127500
1"
11
12
#130000
0"
01
02
#132500
1"
11
12
#135000
0"
01
02
#137500
1"
11
12
#140000
b10 #
b0 #
0%
b0 !
0"
06
0:
0Q
0H
01
02
0;
0M
0K
0I
0U
0R
0E
#142500
1"
11
12
#145000
0"
01
02
#147500
1"
11
12
#150000
0"
01
02
#152500
1"
11
12
#155000
0"
01
02
#157500
1"
11
12
#160000
0"
01
02
#162500
1"
11
12
#165000
0"
01
02
#167500
1"
11
12
#170000
b10 !
b11 !
0"
1:
13
01
02
14
1E
#172500
1"
11
12
1F
17
1a
1G
1&
1)
#175000
0"
01
02
#177500
1"
11
12
#180000
0"
01
02
#182500
1"
11
12
#185000
0"
01
02
#187500
1"
11
12
#190000
0"
01
02
#192500
1"
11
12
#195000
0"
01
02
#197500
1"
11
12
#200000
0"
01
02
#202500
1"
11
12
#205000
0"
01
02
#207500
1"
11
12
#210000
0"
01
02
#212500
1"
11
12
#215000
0"
01
02
#217500
1"
11
12
#220000
b1 !
b0 !
0"
0:
03
01
02
04
0E
#222500
1"
11
12
0F
07
0a
0G
0&
0)
#225000
0"
01
02
#227500
1"
11
12
#230000
0"
01
02
#232500
1"
11
12
#235000
0"
01
02
#237500
1"
11
12
#240000
0"
01
02
#242500
1"
11
12
#245000
0"
01
02
#247500
1"
11
12
#250000
b1 !
0"
1:
01
02
1E
#252500
1"
11
12
1F
1X
1P
1'
1(
#255000
0"
01
02
#257500
1"
11
12
#260000
0"
01
02
#262500
1"
11
12
#265000
0"
01
02
#267500
1"
11
12
#270000
0"
01
02
#272500
1"
11
12
#275000
0"
01
02
#277500
1"
11
12
#280000
0"
01
02
#282500
1"
11
12
#285000
0"
01
02
#287500
1"
11
12
#290000
0"
01
02
#292500
1"
11
12
#295000
0"
01
02
#297500
1"
11
12
#300000
b0 !
0"
0:
01
02
0E
#302500
1"
11
12
0F
0X
0P
0'
0(
#305000
0"
01
02
#307500
1"
11
12
#310000
0"
01
02
#312500
1"
11
12
#315000
0"
01
02
#317500
1"
11
12
#320000
0"
01
02
#322500
1"
11
12
#325000
0"
01
02
#327500
1"
11
12
#330000
0"
01
02
#332500
1"
11
12
#335000
0"
01
02
#337500
1"
11
12
#340000
0"
01
02
#342500
1"
11
12
#345000
0"
01
02
#347500
1"
11
12
#350000
0"
01
02
#352500
1"
11
12
#355000
0"
01
02
#357500
1"
11
12
#360000
0"
01
02
#362500
1"
11
12
#365000
0"
01
02
#367500
1"
11
12
#370000
0"
01
02
#372500
1"
11
12
#375000
0"
01
02
#377500
1"
11
12
#380000
0"
01
02
#382500
1"
11
12
#385000
0"
01
02
#387500
1"
11
12
#390000
0"
01
02
#392500
1"
11
12
#395000
0"
01
02
#397500
1"
11
12
#400000
0"
01
02
#402500
1"
11
12
#405000
0"
01
02
#407500
1"
11
12
#410000
0"
01
02
#412500
1"
11
12
#415000
0"
01
02
#417500
1"
11
12
#420000
0"
01
02
#422500
1"
11
12
#425000
0"
01
02
#427500
1"
11
12
#430000
0"
01
02
#432500
1"
11
12
#435000
0"
01
02
#437500
1"
11
12
#440000
0"
01
02
#442500
1"
11
12
#445000
0"
01
02
#447500
1"
11
12
#450000
0"
01
02
#452500
1"
11
12
#455000
0"
01
02
#457500
1"
11
12
#460000
0"
01
02
#462500
1"
11
12
#465000
0"
01
02
#467500
1"
11
12
#470000
0"
01
02
#472500
1"
11
12
#475000
0"
01
02
#477500
1"
11
12
#480000
0"
01
02
#482500
1"
11
12
#485000
0"
01
02
#487500
1"
11
12
#490000
0"
01
02
#492500
1"
11
12
#495000
0"
01
02
#497500
1"
11
12
#500000
0"
01
02
#502500
1"
11
12
#505000
0"
01
02
#507500
1"
11
12
#510000
0"
01
02
#512500
1"
11
12
#515000
0"
01
02
#517500
1"
11
12
#520000
0"
01
02
#522500
1"
11
12
#525000
0"
01
02
#527500
1"
11
12
#530000
0"
01
02
#532500
1"
11
12
#535000
0"
01
02
#537500
1"
11
12
#540000
0"
01
02
#542500
1"
11
12
#545000
0"
01
02
#547500
1"
11
12
#550000
0"
01
02
#552500
1"
11
12
#555000
0"
01
02
#557500
1"
11
12
#560000
0"
01
02
#562500
1"
11
12
#565000
0"
01
02
#567500
1"
11
12
#570000
0"
01
02
#572500
1"
11
12
#575000
0"
01
02
#577500
1"
11
12
#580000
0"
01
02
#582500
1"
11
12
#585000
0"
01
02
#587500
1"
11
12
#590000
0"
01
02
#592500
1"
11
12
#595000
0"
01
02
#597500
1"
11
12
#600000
0"
01
02
#602500
1"
11
12
#605000
0"
01
02
#607500
1"
11
12
#610000
0"
01
02
#612500
1"
11
12
#615000
0"
01
02
#617500
1"
11
12
#620000
0"
01
02
#622500
1"
11
12
#625000
0"
01
02
#627500
1"
11
12
#630000
0"
01
02
#632500
1"
11
12
#635000
0"
01
02
#637500
1"
11
12
#640000
0"
01
02
#642500
1"
11
12
#645000
0"
01
02
#647500
1"
11
12
#650000
0"
01
02
#652500
1"
11
12
#655000
0"
01
02
#657500
1"
11
12
#660000
0"
01
02
#662500
1"
11
12
#665000
0"
01
02
#667500
1"
11
12
#670000
0"
01
02
#672500
1"
11
12
#675000
0"
01
02
#677500
1"
11
12
#680000
0"
01
02
#682500
1"
11
12
#685000
0"
01
02
#687500
1"
11
12
#690000
0"
01
02
#692500
1"
11
12
#695000
0"
01
02
#697500
1"
11
12
#700000
0"
01
02
#702500
1"
11
12
#705000
0"
01
02
#707500
1"
11
12
#710000
0"
01
02
#712500
1"
11
12
#715000
0"
01
02
#717500
1"
11
12
#720000
0"
01
02
#722500
1"
11
12
#725000
0"
01
02
#727500
1"
11
12
#730000
0"
01
02
#732500
1"
11
12
#735000
0"
01
02
#737500
1"
11
12
#740000
0"
01
02
#742500
1"
11
12
#745000
0"
01
02
#747500
1"
11
12
#750000
0"
01
02
#752500
1"
11
12
#755000
0"
01
02
#757500
1"
11
12
#760000
0"
01
02
#762500
1"
11
12
#765000
0"
01
02
#767500
1"
11
12
#770000
0"
01
02
#772500
1"
11
12
#775000
0"
01
02
#777500
1"
11
12
#780000
0"
01
02
#782500
1"
11
12
#785000
0"
01
02
#787500
1"
11
12
#790000
0"
01
02
#792500
1"
11
12
#795000
0"
01
02
#797500
1"
11
12
#800000
0"
01
02
#802500
1"
11
12
#805000
0"
01
02
#807500
1"
11
12
#810000
0"
01
02
#812500
1"
11
12
#815000
0"
01
02
#817500
1"
11
12
#820000
0"
01
02
#822500
1"
11
12
#825000
0"
01
02
#827500
1"
11
12
#830000
0"
01
02
#832500
1"
11
12
#835000
0"
01
02
#837500
1"
11
12
#840000
0"
01
02
#842500
1"
11
12
#845000
0"
01
02
#847500
1"
11
12
#850000
0"
01
02
#852500
1"
11
12
#855000
0"
01
02
#857500
1"
11
12
#860000
0"
01
02
#862500
1"
11
12
#865000
0"
01
02
#867500
1"
11
12
#870000
0"
01
02
#872500
1"
11
12
#875000
0"
01
02
#877500
1"
11
12
#880000
0"
01
02
#882500
1"
11
12
#885000
0"
01
02
#887500
1"
11
12
#890000
0"
01
02
#892500
1"
11
12
#895000
0"
01
02
#897500
1"
11
12
#900000
0"
01
02
#902500
1"
11
12
#905000
0"
01
02
#907500
1"
11
12
#910000
0"
01
02
#912500
1"
11
12
#915000
0"
01
02
#917500
1"
11
12
#920000
0"
01
02
#922500
1"
11
12
#925000
0"
01
02
#927500
1"
11
12
#930000
0"
01
02
#932500
1"
11
12
#935000
0"
01
02
#937500
1"
11
12
#940000
0"
01
02
#942500
1"
11
12
#945000
0"
01
02
#947500
1"
11
12
#950000
0"
01
02
#952500
1"
11
12
#955000
0"
01
02
#957500
1"
11
12
#960000
0"
01
02
#962500
1"
11
12
#965000
0"
01
02
#967500
1"
11
12
#970000
0"
01
02
#972500
1"
11
12
#975000
0"
01
02
#977500
1"
11
12
#980000
0"
01
02
#982500
1"
11
12
#985000
0"
01
02
#987500
1"
11
12
#990000
0"
01
02
#992500
1"
11
12
#995000
0"
01
02
#997500
1"
11
12
